stat230project
…
bottle <- read_csv("bottle.csv")

Rows: 912 Columns: 6
── Column specification ────────────────────────────────────────────────────────
Delimiter: ","
chr (1): block
dbl (5): sample, reps, order, trt, success

ℹ Use `spec()` to retrieve the full column specification for this data.
ℹ Specify the column types or set `show_col_types = FALSE` to quiet this message.

bottle

# A tibble: 912 × 6
   block sample  reps order   trt success
   <chr>  <dbl> <dbl> <dbl> <dbl>   <dbl>
 1 A         49    11     1     2     0.2
 2 A         47     9     2     2     0.1
 3 A        256    28     3     7     0  
 4 A        184    32     4     5     0.1
 5 A         91    15     5     3     0.3
 6 A        148    34     6     4     0  
 7 A         95    19     7     3     0.2
 8 A        293    27     8     8     0  
 9 A         51    13     9     2     0.3
10 A         21    21    10     1     0  
# ℹ 902 more rows
…
bottle <- bottle |>
  mutate(water_level = case_when(trt == "1" | trt == "5" ~ "quarter",
                                 trt == "2" | trt == "6" ~ "half",
                                 trt == "3" | trt == "7" ~ "three_quarter",
                                 trt == "4" | trt == "8" ~ "full")) |>
  mutate(brand = case_when(trt == "1" | trt == "2" | trt == "3" | trt == "4" ~ "fiji",
                           trt == "5" | trt == "6" | trt == "7" | trt == "8" ~ "dasani"))

bottle

# A tibble: 912 × 8
   block sample  reps order trt   success water_level   brand 
   <chr>  <dbl> <dbl> <dbl> <fct>   <dbl> <chr>         <chr> 
 1 A         49    11     1 2         0.2 half          fiji  
 2 A         47     9     2 2         0.1 half          fiji  
 3 A        256    28     3 7         0   three_quarter dasani
 4 A        184    32     4 5         0.1 quarter       dasani
 5 A         91    15     5 3         0.3 three_quarter fiji  
 6 A        148    34     6 4         0   full          fiji  
 7 A         95    19     7 3         0.2 three_quarter fiji  
 8 A        293    27     8 8         0   full          dasani
 9 A         51    13     9 2         0.3 half          fiji  
10 A         21    21    10 1         0   quarter       fiji  
# ℹ 902 more rows
…
